{
    "name": "hill_monte_carlo",
    "plural": "hill_monte_carlos",
    "base": "PersistedModel",
    "properties": {
      "_id": {
        "type": "string",
        "id": true,
        "generated": true
      },
      "userID": {
        "type": "string",
        "required": true
      },
      "s": {
        "type": "number",
        "required": true
      },
      "alpha_zero": {
          "type": "number",
          "required": true
      },
      "beta_zero": {
          "type": "number",
          "required": true
      },
      "constant_y1": {
        "type": "number",
        "required": true
      },
      "constant_y2": {
        "type": "number",
        "required": true
      },
      "constant_k1": {
        "type": "number",
        "required": true
      },
      "constant_k1_prim": {
        "type": "number",
        "required": true
      },
      "constant_k2": {
        "type": "number",
        "required": true
      },
      "constant_k2_prim": {
        "type": "number",
        "required": true
      },
      "parameter_gama": {
        "type": "number",
        "required": true
      },
      "parameter_delta": {
        "type": "number",
        "required": true
      },
      "epsilon": {
        "type": "number",
        "required": true
      },
      "actin": {
        "type": "number",
        "required": true
      },
      "myosin": {
        "type": "number",
        "required": true
      },
      "final_const_of_myosin": {
        "type": "number",
        "required": false
      },
      "number_of_filaments": {
        "type": "number",
        "required": true
      },
      "number_of_tm_tn_units": {
        "type": "number",
        "required": true
      },
      "number_of_actin_per_unit": {
        "type": "number",
        "required": true
      },
      "number_of_iteration": {
        "type": "number",
        "required": true
      },
      "alpha_fiting": {
        "type": "boolean",
        "required": false
      },
      "alpha_guess_of_params1": {
        "type": "number",
        "required": false
      },
      "alpha_guess_of_params2": {
        "type": "number",
        "required": false
      },
      "alpha_lower_bound": {
        "type": "number",
        "required": false
      },
      "alpha_upper_bound": {
        "type": "number",
        "required": false
      },
      "beta_fiting": {
        "type": "boolean",
        "required": false
      },
      "beta_guess_of_params1": {
        "type": "number",
        "required": false
      },
      "beta_guess_of_params2": {
        "type": "number",
        "required": false
      },
      "beta_lower_bound": {
        "type": "number",
        "required": false
      },
      "beta_upper_bound": {
        "type": "number",
        "required": false
      },
      "y1_fiting": {
        "type": "boolean",
        "required": false
      },
      "y1_guess_of_params1": {
        "type": "number",
        "required": false
      },
      "y1_guess_of_params2": {
        "type": "number",
        "required": false
      },
      "y1_lower_bound": {
        "type": "number",
        "required": false
      },
      "y1_upper_bound": {
        "type": "number",
        "required": false
      },
      "y2_fiting": {
        "type": "boolean",
        "required": false
      },
      "y2_guess_of_params1": {
        "type": "number",
        "required": false
      },
      "y2_guess_of_params2": {
        "type": "number",
        "required": false
      },
      "y2_lower_bound": {
        "type": "number",
        "required": false
      },
      "y2_upper_bound": {
        "type": "number",
        "required": false
      },
      "k1_fiting": {
        "type": "boolean",
        "required": false
      },
      "k1_guess_of_params1": {
        "type": "number",
        "required": false
      },
      "k1_guess_of_params2": {
        "type": "number",
        "required": false
      },
      "k1_lower_bound": {
        "type": "number",
        "required": false
      },
      "k1_upper_bound": {
        "type": "number",
        "required": false
      },
      "k1_prim_fiting": {
        "type": "boolean",
        "required": false
      },
      "k1_prim_guess_of_params1": {
        "type": "number",
        "required": false
      },
      "k1_prim_guess_of_params2": {
        "type": "number",
        "required": false
      },
      "k1_prim_lower_bound": {
        "type": "number",
        "required": false
      },
      "k1_prim_upper_bound": {
        "type": "number",
        "required": false
      },
      "k2_fiting": {
        "type": "boolean",
        "required": false
      },
      "k2_guess_of_params1": {
        "type": "number",
        "required": false
      },
      "k2_guess_of_params2": {
        "type": "number",
        "required": false
      },
      "k2_lower_bound": {
        "type": "number",
        "required": false
      },
      "k2_upper_bound": {
        "type": "number",
        "required": false
      },
      "k2_prim_fiting": {
        "type": "boolean",
        "required": false
      },
      "k2_prim_guess_of_params1": {
        "type": "number",
        "required": false
      },
      "k2_prim_guess_of_params2": {
        "type": "number",
        "required": false
      },
      "k2_prim_lower_bound": {
        "type": "number",
        "required": false
      },
      "k2_prim_upper_bound": {
        "type": "number",
        "required": false
      },
      "coopertivity_switch": {
        "type": "number",
        "required": false
      },
      "type_of_simulation": {
          "type": "string",
          "required": false
      }
    },
    "acls": [{
        "principalType": "ROLE",
        "principalId": "$everyone",
        "permission": "ALLOW",
        "property": "create"
      }]
  }
   