{
  "name": "probabilistic_out",
  "plural": "probabilistic_out",
  "base": "PersistedModel",
  "properties": {
    "_id": {
      "type": "string",
      "id": true,
      "generated": true
    },
    "userID": {
      "type": "string",
      "required": true
    },
    "input_id": {
      "type": "string",
      "required": true
    },
    "fractional_fluorescence": {
      "type": [
        {
          "x": {
            "type": "number",
            "required": true
          },
          "y": {
            "type": "number",
            "required": true
          }
        }
      ],
      "required": true
    },
    "fraction_saturation": {
      "type": [
        {
          "x": {
            "type": "number",
            "required": true
          },
          "y": {
            "type": "number",
            "required": true
          }
        }
      ],
      "required": true
    },
    "fraction_of_unbound_actin": {
      "type": [
        {
          "x": {
            "type": "number",
            "required": true
          },
          "y": {
            "type": "number",
            "required": true
          }
        }
      ],
      "required": true
    },
    "free_myosin_concentration": {
      "type": [
        {
          "x": {
            "type": "number",
            "required": true
          },
          "y": {
            "type": "number",
            "required": true
          }
        }
      ],
      "required": true
    },
    "histogram": {
      "type": [
        {
          "col1": {
            "type": "string",
            "required": true
          },
          "col2": {
            "type": "string",
            "required": true
          },
          "col3": {
            "type": "string",
            "required": true
          },
          "col4": {
            "type": "string",
            "required": true
          },
          "col5": {
            "type": "string",
            "required": true
          },
          "col6": {
            "type": "string",
            "required": true
          },
          "col7": {
            "type": "string",
            "required": true
          },
          "col8": {
            "type": "string",
            "required": true
          }
        }
      ],
      "required": true
    }
  },
  "acls": [
    {
      "principalType": "ROLE",
      "principalId": "$everyone",
      "permission": "ALLOW",
      "property": "create"
    }
  ]
}