{
"reference" : ["doi:10.1016/j.bpj.2017.01.021."],  
"constants" :  [ 
                {
                    "constant_name" : "K_m",
                    "value" : 28.0,
                    "units" : "-",
                    "calculated": false 
                },
                {
                    "constant_name" : "V_max",
                    "value" : 5.0,
                    "units" : "-",
                    "fitted": false 
                },
                {
                    "constant_name" : "K_A",
                    "value" : 0.012,
                    "units" : "\\mu M^{-1}",
                    "fitted": true 
                },
                {
                    "constant_name" : "K_Pi",
                    "value" : 100.0,
                    "units" : "mM",
                    "fitted": false 
                },
                {
                    "constant_name" : "K_D*",
                    "value" : 0.50,
                    "units" : "-",
                    "fitted": false 
                },
                {
                    "constant_name" : "K_D",
                    "value" : 33.3,
                    "units" : "\\mu M",
                    "fitted": false 
                },
                {
                    "constant_name" : "K_T",
                    "value" : 0.003,
                    "units" : "\\mu M^{-1}",
                    "fitted": false 
                },
                {
                    "constant_name" : "K_T*",
                    "value" : 150.0,
                    "units" : "-",
                    "fitted": false 
                },
                {
                    "constant_name" : "K_T**",
                    "value" : 1000,
                    "units" : "\\mu M",
                    "fitted": false 
                },
                {
                    "constant_name" : "K_H",
                    "value" : 7.419,
                    "units" : "-",
                    "fitted": true
                },
                {
                    "constant_name" : "K_AH",
                    "value" : 150.3,
                    "units" : "-",
                    "fitted": true 
                },
                {
                    "constant_name" : "k_A",
                    "value" : 11.87,
                    "units" : "\\mu M^{-1}s^{-1}",
                    "fitted": false 
                },
                {
                    "constant_name" : "k_Pi",
                    "value" : 17.58,
                    "units" : "s^{-1}",
                    "fitted": false 
                },
                {
                    "constant_name" : "k_D",
                    "value" : 1000,
                    "units" : "s^{-1}",
                    "fitted": false 
                },
                {
                    "constant_name" : "K_T",
                    "value" : 10.72,
                    "units" : "\\mu M^{-1}s^{-1}",
                    "fitted": false 
                },
                {
                    "constant_name" : "k_T*",
                    "value" : 1500,
                    "units" : "s^{-1}",
                    "fitted": false 
                },
                {
                    "constant_name" : "k_T**",
                    "value" : 1000,
                    "units" : "s^{-1}",
                    "fitted": false 
                },
                {
                    "constant_name" : "k_H",
                    "value" : 10.39,
                    "units" : "s^{-1}",
                    "fitted": false 
                },
                {
                    "constant_name" : "k_AH",
                    "value" : 10.52,
                    "units" : "s^{-1}",
                    "fitted": false 
                },
                {
                    "constant_name" : "k_-A",
                    "value" : 1000,
                    "units" : "s^{-1}",
                    "fitted": false 
                },
                {
                    "constant_name" : "k_-Pi",
                    "value" : 0.176,
                    "units" : "\\mu M^{-1}s^{-1}",
                    "fitted": true
                },
                {
                    "constant_name" : "k_-D*",
                    "value" : 794.0,
                    "units" : "s^{-1}",
                    "fitted": false 
                },
                {
                    "constant_name" : "k_-D",
                    "value" : 30.3,
                    "units" : "\\mu M^{-1}s^{-1}",
                    "fitted": false 
                },
                {
                    "constant_name" : "k_-T",
                    "value" : 3350,
                    "units" : "s^{-1}",
                    "fitted": true
                },
                {
                    "constant_name" : "k_-T*",
                    "value" : 10.0,
                    "units" : "s^{-1}",
                    "fitted": false 
                },
                {
                    "constant_name" : "k_-T**",
                    "value" : 1.0,
                    "units" : "\\mu M^{-1}s^{-1}",
                    "fitted": false 
                },
                {
                    "constant_name" : "k_-H",
                    "value" : 1.4,
                    "units" : "s^{-1}",
                    "fitted": false 
                },
                {
                    "constant_name" : "k_-AH",
                    "value" : 0.07,
                    "units" : "s^{-1}",
                    "fitted": false 
                }
               ]
}