0.1	0.018006431
0.177828	0.031940544
0.316228	0.056548215
0.562341	0.099774272
1	0.175
1.778279	0.3038098
3.162278	0.518371661
5.623413	0.859862864
10	1.365853659
17.782794	2.041368241
31.622777	2.827845709
56.234133	3.609953283
100	4.27480916
177.827941	4.768693618
316.227766	5.100039982
562.341325	5.307419671
1000	5.431619787
1778.27941	5.504050199
3162.27766	5.545635795
5623.413252	5.569298318
10000	5.58269365