# Molar Concentration of Actin [uM]          = 0.500000
# Molar Concentration of Myosin Initial [uM] = 5.000000
# Molar Concentration of Myosin Final [uM]   = 5.000000
# Numer of Filaments                         = 100
# Number of Tmtn units                       = 100

# Number of process                          = 4
# Mixing interval                            = 1

# Total time [s] = 2.000000

# Parameters of simulation:
	+ Kb  = 10.000000
	+ Kb- = 100.000000
	+ Kb+ = 1000.000000
	+ Kt  = 0.020000
	+ Kt- = 3000.000000
	+ Kt+ = 60.000000
	+ K1+ = 1500000.000000
	+ K1- = 10.000000
	+ K2+ = 1000.000000
	+ K2- = 5.000000

	+ Cooperativity Factor          = 6.000000
	+ Negative Cooperativity Factor = 5.000000

# Simulation time = 23.011315

# Results of simulation:
	+ Number of all myosin  = 700000
	+ Number of free myosin = 636550
	+ Number of all actin   = 70000
	+ Number of free actin  = 6550
	+ Error                 = 0.000016

Proces 0, FreeMyosin = 159138
Proces 1, FreeMyosin = 159138
Proces 2, FreeMyosin = 159137
Proces 3, FreeMyosin = 159137
