0.1	0.017902813
0.177828	0.031772971
0.316228	0.056302349
0.562341	0.099498334
1	0.175
1.778279	0.3052594
3.162278	0.52501779
5.623413	0.882135371
10	1.428571429
17.782794	2.192205583
31.622777	3.1343916
56.234133	4.133380739
100	5.035971223
177.827941	5.740937175
316.227766	6.231478994
562.341325	6.546014903
1000	6.737247353
1778.27941	6.84977544
3162.27766	6.914721549
5623.413252	6.951787341
10000	6.972806056